{
  "project_info": {
    "project_number": "340313470746",
    "firebase_url": "https://town7-1d0f3.firebaseio.com",
    "project_id": "town7-1d0f3",
    "storage_bucket": "town7-1d0f3.appspot.com"
  },
  "client": [
    {
      "client_info": {
        "mobilesdk_app_id": "1:340313470746:android:600086539a6561edcadea3",
        "android_client_info": {
          "package_name": "com.town7"
        }
      },
      "oauth_client": [
        {
          "client_id": "340313470746-c72fv2l8nd4cir6cbd6q5va2ro7jotk6.apps.googleusercontent.com",
          "client_type": 3
        }
      ],
      "api_key": [
        {
          "current_key": "AIzaSyBvCPj9EGvv7VxEjF-czWI0VPfkybm4FKM"
        }
      ],
      "services": {
        "appinvite_service": {
          "other_platform_oauth_client": [
            {
              "client_id": "340313470746-c72fv2l8nd4cir6cbd6q5va2ro7jotk6.apps.googleusercontent.com",
              "client_type": 3
            }
          ]
        }
      }
    },
    {
      "client_info": {
        "mobilesdk_app_id": "1:340313470746:android:3e189b1975eb417ecadea3",
        "android_client_info": {
          "package_name": "com.town7partner"
        }
      },
      "oauth_client": [
        {
          "client_id": "340313470746-c72fv2l8nd4cir6cbd6q5va2ro7jotk6.apps.googleusercontent.com",
          "client_type": 3
        }
      ],
      "api_key": [
        {
          "current_key": "AIzaSyBvCPj9EGvv7VxEjF-czWI0VPfkybm4FKM"
        }
      ],
      "services": {
        "appinvite_service": {
          "other_platform_oauth_client": [
            {
              "client_id": "340313470746-c72fv2l8nd4cir6cbd6q5va2ro7jotk6.apps.googleusercontent.com",
              "client_type": 3
            }
          ]
        }
      }
    }
  ],
  "configuration_version": "1"
}